<?xml version="1.0" encoding="UTF-8" standalone="no"?>
<svg
  id="LSL-aircraft"
  xmlns="http://www.w3.org/2000/svg"
  width="128" height="128" viewBox="0 0 128 128"
  style="fill:#FFF;stroke:#000;stroke-width:8;">
  <metadata>
    <rdf:RDF
      xmlns:rdf = "http://www.w3.org/1999/02/22-rdf-syntax-ns#"
      xmlns:dc = "http://purl.org/dc/elements/1.1/" >
      <rdf:Description about="http://lowswaplab.com/"
        dc:title="Aircraft"
        dc:publisher="Low SWaP Lab"
        dc:rights="© 2021 Low SWaP Lab lowswaplab.com"
        dc:format="image/svg+xml">
      </rdf:Description>
    </rdf:RDF>
  </metadata>
  <path style="stroke:#FFF; stroke-width:15;"
    d="M55,50 C56,-6 75,-6 73,50
       L118,71 L119,83 L75,74
       L73,104
       L88,117 L88,120
       L64,119
       L40,120 L40,117
       L55,104
       L53,74 L9,83 L10,71 L55,50z" />
  <path
    d="M55,50 C56,-6 75,-6 73,50
       L118,71 L119,83 L75,74
       L73,104
       L88,117 L88,120
       L64,119
       L40,120 L40,117
       L55,104
       L53,74 L9,83 L10,71 L55,50z" />
</svg>

