<?xml version="1.0" encoding="UTF-8" standalone="no"?>
<svg
  id="LSL-satellite"
  xmlns="http://www.w3.org/2000/svg"
  width="128" height="128" viewBox="0 0 128 128"
  style="fill:#FFF;stroke:#000;stroke-width:8;">
  <metadata>
    <rdf:RDF
      xmlns:rdf = "http://www.w3.org/1999/02/22-rdf-syntax-ns#"
      xmlns:dc = "http://purl.org/dc/elements/1.1/" >
      <rdf:Description about="http://lowswaplab.com/"
        dc:title="Satellite"
        dc:publisher="Low SWaP Lab"
        dc:rights="© 2021 Low SWaP Lab lowswaplab.com"
        dc:format="image/svg+xml">
      </rdf:Description>
    </rdf:RDF>
  </metadata>
  <path style="stroke:#FFF; stroke-width:15; stroke-linecap:round;"
    d="M 20,40
       A 64,80 0 0 0 108,40
       L 20,40z
       M 64,40 L 64,19
       M 50,72 L 78,72 L 78,115 L 50,115 L 50,72
       M 10,80 L 40,80 L 40,100 L 10,100 L 10,80
       M 118,80 L 88,80 L 88,100 L 118,100 L 118,80
    " />
  <path style="stroke-linecap:round;"
    d="M 20,40
       A 64,80 0 0 0 108,40
       L 20,40z
       M 64,40 L 64,19
       M 50,72 L 78,72 L 78,115 L 50,115 L 50,72
       M 10,80 L 40,80 L 40,100 L 10,100 L 10,80
       M 118,80 L 88,80 L 88,100 L 118,100 L 118,80
    " />
</svg>

