<?xml version="1.0" encoding="UTF-8" standalone="no"?>
<svg
  id="LSL-vessel-a-10kn"
  xmlns="http://www.w3.org/2000/svg"
  width="128" height="128" viewBox="0 0 128 128"
  style="fill:#FFF;stroke:#000;stroke-width:8;">
  <metadata>
    <rdf:RDF
      xmlns:rdf = "http://www.w3.org/1999/02/22-rdf-syntax-ns#"
      xmlns:dc = "http://purl.org/dc/elements/1.1/" >
      <rdf:Description about="http://lowswaplab.com/"
        dc:title="Vessel (Class A) ≥ 10kn"
        dc:publisher="Low SWaP Lab"
        dc:rights="© 2021 Low SWaP Lab lowswaplab.com"
        dc:format="image/svg+xml">
      </rdf:Description>
    </rdf:RDF>
  </metadata>
  <polygon style="stroke:#FFF; stroke-width:15;"
    points="64,14 40,50 40,98 88,98 88,50 64,14" />
  <path style="stroke:#FFF; stroke-width:15;"
        d="M 57,105 L 57,127 M71,105 L71,127" />
  <polygon points="64,14 40,50 40,98 88,98 88,50 64,14" />
  <path d="M 57,105 L 57,124 M71,105 L71,124" />
</svg>

