<?xml version="1.0" encoding="UTF-8" standalone="no"?>
<svg
  id="LSL-vessel-b"
  xmlns="http://www.w3.org/2000/svg"
  width="128" height="128" viewBox="0 0 128 128"
  style="fill:#FFF;stroke:#000;stroke-width:8;">
  <metadata>
    <rdf:RDF
      xmlns:rdf = "http://www.w3.org/1999/02/22-rdf-syntax-ns#"
      xmlns:dc = "http://purl.org/dc/elements/1.1/" >
      <rdf:Description about="http://lowswaplab.com/"
        dc:title="Vessel Sailboat (Class B) ≥ 15kn"
        dc:publisher="Low SWaP Lab"
        dc:rights="© 2022 Low SWaP Lab lowswaplab.com"
        dc:format="image/svg+xml">
      </rdf:Description>
    </rdf:RDF>
  </metadata>
  <polygon style="stroke:#FFF; stroke-width:15;"
    points="64,25 40,98 88,98 64,25" />
  <path style="stroke-linecap:round;stroke:#FFF; stroke-width:15;"
    d="M 64,50 L 20, 90" />
  <polygon points="64,25 40,99 88,99 64,25" />
  <path d="M 50,105 L 50,124 M 64,105 L 64,124 M 78,105 L 78,124" />
  <path style="stroke-linecap:round;" d="M 64,50 L 20, 90" />
</svg>

